{
  "project_info": {
    "project_number": "473705498983",
    "project_id": "goodoffer-327003",
    "storage_bucket": "goodoffer-327003.appspot.com"
  },
  "client": [
    {
      "client_info": {
        "mobilesdk_app_id": "1:473705498983:android:83b173cb6b20b475d547c2",
        "android_client_info": {
          "package_name": "pe.edu.upc.goodoffer"
        }
      },
      "oauth_client": [
        {
          "client_id": "473705498983-grb5s27pqiivfaan47l8irnsr9emgbv3.apps.googleusercontent.com",
          "client_type": 1,
          "android_info": {
            "package_name": "pe.edu.upc.goodoffer",
            "certificate_hash": "2bb34ad726a3754364aa86aedc29a0745766ab9a"
          }
        },
        {
          "client_id": "473705498983-if6lnfdtfqltqlq14rii7c0g8a7qbsif.apps.googleusercontent.com",
          "client_type": 3
        }
      ],
      "api_key": [
        {
          "current_key": "AIzaSyDAKvm8kperRIo0wfnrOwDvUADbLDqc-LU"
        }
      ],
      "services": {
        "appinvite_service": {
          "other_platform_oauth_client": [
            {
              "client_id": "473705498983-if6lnfdtfqltqlq14rii7c0g8a7qbsif.apps.googleusercontent.com",
              "client_type": 3
            }
          ]
        }
      }
    }
  ],
  "configuration_version": "1"
}